<svg width="600" height="400" viewBox="0 0 600 400" xmlns="http://www.w3.org/2000/svg">
    <rect width="600" height="400" fill="white"/>
    
    <!-- Title -->
    <text x="300" y="30" text-anchor="middle" font-size="20" fill="black">Efficiency vs Number of Processors</text>
    
    <!-- Axes -->
    <line x1="50" y1="350" x2="550" y2="350" stroke="black" stroke-width="2"/>
    <line x1="50" y1="350" x2="50" y2="50" stroke="black" stroke-width="2"/>
    
    <!-- Data Points and Line -->
    <path d="M50,220 L100,222 L150,223 L200,222 L250,223 L300,225 L350,228 L400,227 L450,230 L500,225" 
          fill="none" 
          stroke="#82ca9d" 
          stroke-width="3"/>
          
    <!-- Data Points -->
    <circle cx="50" cy="220" r="5" fill="#82ca9d"/>
    <circle cx="100" cy="222" r="5" fill="#82ca9d"/>
    <circle cx="150" cy="223" r="5" fill="#82ca9d"/>
    <circle cx="200" cy="222" r="5" fill="#82ca9d"/>
    <circle cx="250" cy="223" r="5" fill="#82ca9d"/>
    <circle cx="300" cy="225" r="5" fill="#82ca9d"/>
    <circle cx="350" cy="228" r="5" fill="#82ca9d"/>
    <circle cx="400" cy="227" r="5" fill="#82ca9d"/>
    <circle cx="450" cy="230" r="5" fill="#82ca9d"/>
    <circle cx="500" cy="225" r="5" fill="#82ca9d"/>
    
    <!-- Axis Labels -->
    <text x="300" y="390" text-anchor="middle" fill="black">Number of Processors</text>
    <text x="20" y="200" transform="rotate(-90, 20, 200)" text-anchor="middle" fill="black">Efficiency</text>
    
    <!-- Grid Lines -->
    <g stroke="#e0e0e0" stroke-dasharray="2,2">
        <line x1="50" y1="350" x2="550" y2="350"/>
        <line x1="50" y1="300" x2="550" y2="300"/>
        <line x1="50" y1="250" x2="550" y2="250"/>
        <line x1="50" y1="200" x2="550" y2="200"/>
        <line x1="50" y1="150" x2="550" y2="150"/>
        <line x1="50" y1="100" x2="550" y2="100"/>
    </g>
</svg>
